[
  {
    "model": "auth.user",
    "pk": 1,
    "fields": {
      "password": "pbkdf2_sha256$390000$OVY2DvxQ5oEsC2vLOYNVMV$ZBRp0+dhIpo9YmD1GHi3dyqErXc403jdhaLgmLJUYbw=",
      "last_login": null,
      "is_superuser": true,
      "username": "admin",
      "first_name": "",
      "last_name": "",
      "email": "admin@admin.com",
      "is_staff": true,
      "is_active": true,
      "date_joined": "2022-08-31T14:33:34.227Z",
      "groups": [],
      "user_permissions": []
    }
  }
]
